Master started
Master subdictionaries: [["123456","password","12345678","qwerty","123456789",
                          "12345","1234","111111","1234567","dragon"],
                         ["123123","baseball","abc123","football","monkey",
                          "letmein","696969","shadow","master","666666"],
                         ["qwertyuiop","123321","mustang","1234567890",
                          "michael","654321","pussy","superman","1qaz2wsx",
                          "7777777"],
                         ["fuckyou","121212","000000","qazwsx","123qwe",
                          "killer","trustno1","jordan","jennifer","zxcvbnm"],
                         ["asdfgh","hunter","buster","soccer","harley",
                          "batman","andrew","tigger","sunshine","iloveyou"],
                         ["fuckme","2000","charlie","robert","thomas",
                          "hockey","ranger","daniel","starwars","klaster"],
                         ["112233","george","asshole","computer","michelle",
                          "jessica","pepper","1111","zxcvbn","555555"],
                         ["11111111","131313","freedom","777777","pass",
                          "fuck","maggie","159753","aaaaaa","ginger"],
                         ["princess","joshua","cheese","amanda","summer",
                          "love","ashley","6969","nicole","chelsea"],
                         ["biteme","matthew","access","yankees","987654321",
                          "dallas","austin","thunder","taylor","matrix"]]
[Node <6462.38.0>] Crashed
[Master <0.2.0>] Size Master_TS is now: 90
[Master <0.2.0>] Received new tuple space request from <6461.38.0>
[Master <0.2.0>] Sent new tuple space <0.68.0> to <6461.38.0>
[Master <0.2.0>] Send still alive ping to: <6461.38.0>
[Master <0.2.0>] Send still alive ping to: <6462.38.0>
[Master <0.2.0>] Send still alive ping to: <6463.38.0>
[Master <0.2.0>] Still alive timeout
[Master <0.2.0>] Sends current_dict: ["123123","baseball","abc123","football",
                                      "monkey"] to: <6461.38.0>
[Master <0.2.0>] Sends current_dict: ["letmein","696969","shadow","master",
                                      "666666"] to: <6463.38.0>
[Master <0.2.0>] Send still alive ping to: <6461.38.0>
[Master <0.2.0>] Send still alive ping to: <6463.38.0>
[Master <0.2.0>] Send still alive ping to: <6461.38.0>
[Master <0.2.0>] Send still alive ping to: <6463.38.0>
[Master <0.2.0>] Send still alive ping to: <6461.38.0>
[Master <0.2.0>] Send still alive ping to: <6463.38.0>
[Master <0.2.0>] Send still alive ping to: <6463.38.0>
[Master <0.2.0>] Send still alive ping to: <6461.38.0>
[Master <0.2.0>] Received new tuple space request from <6463.38.0>
[Master <0.2.0>] Sent new tuple space <0.98.0> to <6463.38.0>
[Master <0.2.0>] Received new tuple space request from <6461.38.0>
[Master <0.2.0>] Sent new tuple space <0.104.0> to <6461.38.0>
[Master <0.2.0>] Size Master_TS is now: 75
[Master <0.2.0>] Received new tuple space request from <6463.38.0>
[Master <0.2.0>] Sent new tuple space <0.128.0> to <6463.38.0>
[Master <0.2.0>] Size Master_TS is now: 60
[Master <0.2.0>] Received new tuple space request from <6461.38.0>
[Master <0.2.0>] Sent new tuple space <0.152.0> to <6461.38.0>
[Master <0.2.0>] Size Master_TS is now: 50
[Master <0.2.0>] Received new tuple space request from <6463.38.0>
[Master <0.2.0>] Sent new tuple space <0.171.0> to <6463.38.0>
[Master <0.2.0>] Received new tuple space request from <6461.38.0>
[Master <0.2.0>] Sent new tuple space <0.177.0> to <6461.38.0>
[Master <0.2.0>] Size Master_TS is now: 40
[Master <0.2.0>] Received new tuple space request from <6461.38.0>
[Master <0.2.0>] Sent new tuple space <0.196.0> to <6461.38.0>
[Master <0.2.0>] Received new tuple space request from <6463.38.0>
[Master <0.2.0>] Sent new tuple space <0.202.0> to <6463.38.0>
[Master <0.2.0>] Size Master_TS is now: 30
[Master <0.2.0>] Received new tuple space request from <6461.38.0>
[Master <0.2.0>] Sent new tuple space <0.221.0> to <6461.38.0>
[Master <0.2.0>] Size Master_TS is now: 20
[Master <0.2.0>] Received new tuple space request from <6463.38.0>
[Master <0.2.0>] Sent new tuple space <0.240.0> to <6463.38.0>
[Master <0.2.0>] Received new tuple space request from <6461.38.0>
[Master <0.2.0>] Sent new tuple space <0.246.0> to <6461.38.0>
[Master <0.2.0>] Size Master_TS is now: 10
[Master <0.2.0>] Received new tuple space request from <6461.38.0>
[Master <0.2.0>] Sent new tuple space <0.265.0> to <6461.38.0>
[Master <0.2.0>] Received new tuple space request from <6463.38.0>
[Master <0.2.0>] Sent new tuple space <0.271.0> to <6463.38.0>
[Master <0.2.0>] Size Master_TS is now: 0
[Master <0.2.0>] Received new tuple space request from <6463.38.0>
[Master <0.2.0>] Sent new tuple space <0.290.0> to <6463.38.0>
[Master <0.2.0>] No passwords remaining to attack, send exit to running nodes
[Master <0.2.0>] Send still alive ping to: <6463.38.0>
[Master <0.2.0>] Send still alive ping to: <6461.38.0>
[Master <0.2.0>] Still alive timeout
[Master] sends exit to <6461.38.0>
[Master] sends exit to <6462.38.0>
[Master] sends exit to <6463.38.0>

Results :
------------
{"user_0000","123456"}
{"user_0001","password"}
{"user_0002","12345678"}
{"user_0003","qwerty"}
{"user_0004","123456789"}
{"user_0005","12345"}
{"user_0006","1234"}
{"user_0007","111111"}
{"user_0008","1234567"}
{"user_0009","dragon"}
{"user_0010","123123"}
{"user_0011","baseball"}
{"user_0012","abc123"}
{"user_0013","football"}
{"user_0014","monkey"}
{"user_0015","letmein"}
{"user_0016","696969"}
{"user_0017","shadow"}
{"user_0018","master"}
{"user_0019","666666"}
{"user_0020","qwertyuiop"}
{"user_0021","123321"}
{"user_0022","mustang"}
{"user_0023","1234567890"}
{"user_0024","michael"}
{"user_0025","654321"}
{"user_0026","pussy"}
{"user_0027","superman"}
{"user_0028","1qaz2wsx"}
{"user_0029","7777777"}
{"user_0030","fuckyou"}
{"user_0031","121212"}
{"user_0032","000000"}
{"user_0033","qazwsx"}
{"user_0034","123qwe"}
{"user_0035","killer"}
{"user_0036","trustno1"}
{"user_0037","jordan"}
{"user_0038","jennifer"}
{"user_0039","zxcvbnm"}
{"user_0040","asdfgh"}
{"user_0041","hunter"}
{"user_0042","buster"}
{"user_0043","soccer"}
{"user_0044","harley"}
{"user_0045","batman"}
{"user_0046","andrew"}
{"user_0047","tigger"}
{"user_0048","sunshine"}
{"user_0049","iloveyou"}
{"user_0050","fuckme"}
{"user_0051","2000"}
{"user_0052","charlie"}
{"user_0053","robert"}
{"user_0054","thomas"}
{"user_0055","hockey"}
{"user_0056","ranger"}
{"user_0057","daniel"}
{"user_0058","starwars"}
{"user_0059","klaster"}
{"user_0060","112233"}
{"user_0061","george"}
{"user_0062","asshole"}
{"user_0063","computer"}
{"user_0064","michelle"}
{"user_0065","jessica"}
{"user_0066","pepper"}
{"user_0067","1111"}
{"user_0068","zxcvbn"}
{"user_0069","555555"}
{"user_0070","11111111"}
{"user_0071","131313"}
{"user_0072","freedom"}
{"user_0073","777777"}
{"user_0074","pass"}
{"user_0075","fuck"}
{"user_0076","maggie"}
{"user_0077","159753"}
{"user_0078","aaaaaa"}
{"user_0079","ginger"}
{"user_0080","princess"}
{"user_0081","joshua"}
{"user_0082","cheese"}
{"user_0083","amanda"}
{"user_0084","summer"}
{"user_0085","love"}
{"user_0086","ashley"}
{"user_0087","6969"}
{"user_0088","nicole"}
{"user_0089","chelsea"}
{"user_0090","biteme"}
{"user_0091","matthew"}
{"user_0092","access"}
{"user_0093","yankees"}
{"user_0094","987654321"}
{"user_0095","dallas"}
{"user_0096","austin"}
{"user_0097","thunder"}
{"user_0098","taylor"}
{"user_0099","matrix"}
Found 100 passwords